kind: manual_second

depends:
- dependency: sdk-cross-autotools
  scope: Build
- dependency: diffutils-pass1
  scope: Build

context: build_target

provides: bzip2-target

plugin_variables:
  join_strategy: Join
  variables:
    config_configure-commands: |
      cd /sources/

      rm /usr/bin/gcc
      ln -s %{target-gcc-triplet}-gcc /opt/usr/bin/gcc
      rm /usr/bin/ar
      ln -s %{target-gcc-triplet}-ar /opt/usr/bin/ar
      rm /usr/bin/ranlib
      ln -s %{target-gcc-triplet}-ranlib /opt/usr/bin/ranlib

      sed -i 's@\(ln -s -f \)$(PREFIX)/bin/@\1@' Makefile
      sed -i "s@(PREFIX)/man@(PREFIX)/share/man@g" Makefile
      make %{make_arch} %{make_compiler}  -f Makefile-libbz2_so
      make %{make_arch} %{make_compiler}  clean

    config_build-commands: |
      make %{make_arch} %{make_compiler} -j libbz2.a bzip2 bzip2recover
    config_install-commands: |

      mkdir -p "%{install-root}"

      make %{make_arch} %{make_compiler} PREFIX="%{install-root}"/usr install

      mkdir -p %{install-root}/usr/lib
      cp -av libbz2.so.* %{install-root}/usr/lib
      ln -sv libbz2.so.1.0.8 %{install-root}/usr/lib/libbz2.so

      mkdir -p %{install-root}/usr/bin
      cp -v bzip2-shared %{install-root}/usr/bin/bzip2
      for i in %{install-root}/usr/bin/{bzcat,bunzip2}; do
        ln -sfv bzip2 $i
      done

      rm -fv %{install-root}/usr/lib/libbz2.a

sources:
- kind: tar
  url: https://www.sourceware.org/pub/bzip2/bzip2-1.0.8.tar.gz
  sha: ab5a03176ee106d3f0fa90e381da478ddae405918153cca248e682cd0c4a2269
  unpack: bzip2-1.0.8
