kind: manual_second

provides: cairo-target

depends:
- dependency: bash
  scope: Build
- dependency: gcc-cross
  scope: Build
- dependency: make
  scope: Build
- dependency: python
  scope: Build
- dependency: meson
  scope: Build
- dependency: meson-config
  scope: Build
- dependency: ninja
  scope: Build
- dependency: pkgconf
  scope: Build
- dependency: python-yaml
  scope: Build
- dependency: python-jinja2
  scope: Build
- dependency: python-ply
  scope: Build

- dependency: expat-target
  location: /opt/cross/
- dependency: zlib-target
  location: /opt/cross/
- dependency: pixman-target
  location: /opt/cross/
- dependency: libpng-target
  location: /opt/cross/

sources:
  - kind: git
    url: https://gitlab.freedesktop.org/cairo/cairo
    sha: 200441e6855854eb4dbf338e44d67b00ababe07f
    fetch: 1.18.2

context: build_target


plugin_variables:
  join_strategy: Join
  variables:
    prefix: /usr

    config_configure-commands: |
      meson setup . ./build  --buildtype=release  \
        --prefix=/usr/ -Dtests=disabled -Dglib=disabled \
        -Dspectre=disabled -Dsymbol-lookup=disabled \
        --cross-file /meson_cross_build.txt

    config_install-commands: |
      mkdir -p "%{install-root}"
      DESTDIR=/%{install-root}/ ninja -C build install
