kind: manual_second

depends:
- dependency: sdk-cross-autotools
  scope: Build


context: build_target

provides: coreutils-target

plugin_variables:
  join_strategy: Join
  variables:
    config_configure-commands: |
      cd /sources/
      mkdir -vp build
      cd       build
      mkdir -p /tools/usr/include/
      mkdir -p /tools/include/

      #autoreconf -fiv
      FORCE_UNSAFE_CONFIGURE=1 ../configure \
            --prefix=/usr            \
            %{autotools_target}                        \
            %{autotools_host_build} \
            --enable-no-install-program=kill,uptime

    config_build-commands: |
      cd /sources/build
      set +h
      echo bob4
      make -j

    config_install-commands: |
      cd /sources/build
      mkdir -p "%{install-root}"
      make DESTDIR="%{install-root}" install

sources:
- kind: tar
  url: https://ftp.gnu.org/gnu/coreutils/coreutils-9.3.tar.gz
  sha: a33d2c0bc49be3c79a4794944dcd87103bf497b53a14bafcd431c8ca53975252
  unpack: coreutils-9.3