kind: manual_second

depends:
- dependency: gcc
  scope: Build
- dependency: python
- dependency: bash
  scope: Build
- dependency: make
  scope: Build
- dependency: coreutils
  scope: Build
- dependency: sed
  scope: Build
- dependency: file
  scope: Build
- dependency: grep
  scope: Build
- dependency: gawk-pass1
  scope: Build
- dependency: findutils-pass1
  scope: Build
- dependency: diffutils-pass1
  scope: Build
- dependency: expat
  scope: Build
- dependency: pkgconf
  scope: Build
- dependency: openssl
  scope: Build
- dependency: python-wheel
  scope: Build
- dependency: python-build
  scope: Build
- dependency: python-installer
  scope: Build
- dependency: python-pyproject_hooks
  scope: Build
- dependency: python-packaging
  scope: Build

context: tool_chain_pass1

provides: cython

plugin_variables:
  join_strategy: Join
  variables:
    python: python -P
    build-args: "--no-isolation --wheel --outdir %{dist-dir}"
    dist-dir: "%{build-root}/dist"
    build-root: /sources/
    config_build-commands: |
      cd /sources/
      export HOME="/root/"
      export PYTHONPATH="/sources/src"
      %{python} -mbuild %{build-args} .

    config_install-commands: |
      mkdir -p %{install-root}
      %{python} -minstaller %{dist-dir}/*.whl --destdir %{install-root}

sources:
- kind: tar
  url: https://files.pythonhosted.org/packages/38/db/df0e99d6c5fe19ee5c981d22aad557be4bdeed3ecfae25d47b84b07f0f98/Cython-0.29.36.tar.gz
  sha: 41c0cfd2d754e383c9eeb95effc9aa4ab847d0c9747077ddd7c0dcb68c3bc01f
  unpack: Cython-0.29.36
