kind: manual_second

depends:
- dependency: sdk-cross-autotools
  scope: Build
- dependency: diffutils-pass1
  scope: Build


context: tool_chain_pass2

provides: groff

plugin_variables:
  join_strategy: Join
  variables:
    config_configure-commands: |
      cd /sources/build

      ../configure --prefix=/usr                           \
            --disable-static                        \
            --with-openssl                          \
            --enable-threaded-resolver              \
            --with-ca-path=/etc/ssl/certs

    config_build-commands: |
      make -j
    config_install-commands: |
      mkdir -p "%{install-root}"
      make DESTDIR="%{install-root}" install

sources:
- kind: tar
  url: https://ftp.gnu.org/gnu/groff/groff-1.23.0.tar.gz
  sha: 6b9757f592b7518b4902eb6af7e54570bdccba37a871fddb2d30ae3863511c13
  unpack: groff-1.23.0
