kind: manual_second

depends:
- dependency: sdk-cross-autotools
  scope: Build
- dependency: ncurses-target
  location: /opt/cross


context: build_target

provides: i2c-tools-target

plugin_variables:
  join_strategy: Join
  variables:
    config_install-commands: |
      mkdir -p %{install-root}
      make O="/sources/build" PREFIX=/usr/ SBINDIR=/usr/bin %{make_arch} %{make_compiler} -j10 DESTDIR=%{install-root} all
      make O="/sources/build" PREFIX=/usr/ SBINDIR=/usr/bin %{make_arch} %{make_compiler} -j10 DESTDIR=%{install-root} install
      mv %{install-root}/usr/sbin/*  %{install-root}/usr/bin
      rmdir %{install-root}/usr/sbin

sources:
- kind: tar
  url: https://mirrors.edge.kernel.org/pub/software/utils/i2c-tools/i2c-tools-4.3.tar.xz
  sha: 1f899e43603184fac32f34d72498fc737952dbc9c97a8dd9467fadfdf4600cf9
  unpack: i2c-tools-4.3