kind: manual_second

depends:
- dependency: sdk-cross-autotools
  scope: Build
- dependency: diffutils-pass1
  scope: Build
- dependency: util-linux
  scope: Build

context: build_target

provides: libaudit-target

plugin_variables:
  join_strategy: Join
  variables:
    config_configure-commands: |
      cd /sources/
      autoreconf -ivf .
      mkdir -vp build
      cd       build
      ../configure --prefix=/usr \
            %{autotools_host_build} \
            --without-python \
            --without-python3 \
            --without-golang \
            --enable-systemd \
            --disable-zos-remote \
            --sbindir=/usr/bin \
            --sysconfdir=/etc \
            --disable-strip \
            --disable-zos-remote \
            --with-arm=yes \
            --with-aarch64=yes \
            --with-sysroot=/opt/cross/

    config_build-commands: |
      make -j

    config_install-commands: |
      cd /sources/build
      mkdir -p "%{install-root}"
      make DESTDIR="%{install-root}" install
      mkdir -p %{install-root}/var/log/audit

sources:
- kind: git
  url: https://www.github.com/linux-audit/audit-userspace.git
  sha: 572eb7d4fe926e7c1c52166d08e78af54877cbc5