kind: manual_second

depends:
- dependency: gcc-cross
  scope: Build
- dependency: gcc
  scope: Build
- dependency: autoconf
  scope: Build
- dependency: automake
  scope: Build
- dependency: xz
  scope: Build
- dependency: perl-pass3
  scope: Build
- dependency: glibc
  scope: Build
- dependency: bash
  scope: Build
- dependency: coreutils
  scope: Build
- dependency: util-linux
  scope: Build
- dependency: sed
  scope: Build
- dependency: file
  scope: Build
- dependency: grep
  scope: Build
- dependency: gawk-pass1
  scope: Build
- dependency: diffutils-pass1
  scope: Build
- dependency: pkgconf
  scope: Build
- dependency: util-linux
  scope: Build
- dependency: gperf
  scope: Build

context: build_target

provides: libcap-target

environment:
  join_strategy: Join
  variables:
    CROSS_COMPILE: "%{target-gcc-triplet}-"
    CC: x86_64-pc-linux-gnu-gcc
    CXX: x86_64-pc-linux-gnu-g++
    HOSTCC: x86_64-pc-linux-gnu-gcc

plugin_variables:
  join_strategy: Join
  variables:
    config_configure-commands: |
      mkdir -vp /sources/

      cd /sources/

    config_build-commands: |
      set +h
      make prefix=/usr lib=lib sbin=bin %{make_arch} CROSS_COMPILE="%{target-gcc-triplet}-" RAISE_SETFCAP=no BUILD_CC=x86_64-pc-linux-gnu-gcc -j

    config_install-commands: |
      mkdir -p "%{install-root}/usr"
      make DESTDIR="%{install-root}" prefix=/usr lib=lib sbin=bin %{make_arch} CROSS_COMPILE="%{target-gcc-triplet}-" RAISE_SETFCAP=no  BUILD_CC=x86_64-pc-linux-gnu-gcc  install


sources:
- kind: tar
  url: https://www.kernel.org/pub/linux/libs/security/linux-privs/libcap2/libcap-2.63.tar.xz
  sha: 0c637b8f44fc7d8627787e9cf57f15ac06c1ddccb53e41feec5496be3466f77f
  unpack: libcap-2.63
