kind: manual_second

depends:
- dependency: sdk-cross-autotools
  scope: Build
- dependency: diffutils-pass1
  scope: Build

context: build_target

provides: libcrypt-target

plugin_variables:
  join_strategy: Join
  variables:
    config_configure-commands: |
      mkdir -vp /sources/build
      cd /sources/build

      ../configure --prefix=/usr  \
               %{autotools_target}                        \
         %{autotools_host_build}

    config_build-commands: |
      set +h
      make -j

    config_install-commands: |
      mkdir -p "%{install-root}"
      make DESTDIR="%{install-root}" install

sources:
- kind: tar
  url: 
  sha: 588546b945bba4b70b6a3a616e80b4ab466e3f33024a352fc2198112cdbb3ae2
  unpack: gperf-3.1