kind: manual_second

provides: libelfutils-target

depends:
- dependency: gcc-cross
  scope: Build
- dependency: make
  scope: Build
- dependency: coreutils
  scope: Build
- dependency: flex
  scope: Build
- dependency: m4
  scope: Build
- dependency: autoconf
  scope: Build
- dependency: automake
  scope: Build
- dependency: xz
  scope: Build
- dependency: m4
  scope: Build
- dependency: perl-pass3
  scope: Build
- dependency: glibc
  scope: Build
- dependency: bash
  scope: Build
- dependency: coreutils
  scope: Build
- dependency: sed
  scope: Build
- dependency: file
  scope: Build
- dependency: grep
  scope: Build
- dependency: gawk-pass1
  scope: Build
- dependency: diffutils-pass1
  scope: Build
- dependency: libtool
  scope: Build
- dependency: make
  scope: Build
- dependency: findutils-pass1
  scope: Build
- dependency: pkgconf
  scope: Build
- dependency: bison-pass3
  scope: Build
- dependency: bc
  scope: Build
- dependency: gzip-pass1
  scope: Build
- dependency: gettext
  scope: Build
- dependency: tar
  scope: Build
- dependency: zlib-target
  location: /opt/cross

sources:
- kind: tar
  url: https://sourceware.org/ftp/elfutils/0.189/elfutils-0.189.tar.bz2
  sha: 39bd8f1a338e2b7cd4abc3ff11a0eddc6e690f69578a57478d8179b4148708c8
  unpack: elfutils-0.189

context: build_target


plugin_variables:
  join_strategy: Join
  variables:
    config_configure-commands: |
      mkdir -p /sources/build

      cd /sources/build

      ../configure --prefix=/usr                       \
            %{autotools_target}                        \
            %{autotools_host_build} --prefix=/usr --disable-debuginfod --enable-libdebuginfod=dummy

    config_build-commands: |
      make -j
    config_install-commands: |
      mkdir -p "%{install-root}"
      make DESTDIR="%{install-root}" install

