kind: manual_second

depends:
- dependency: sdk-cross-autotools
  scope: Build
- dependency: gperf
  scope: Build

context: build_target

provides: libseccomp-target

plugin_variables:
  join_strategy: Join
  variables:
    config_configure-commands: |
      cd /sources/
      autoreconf -ivf .
      mkdir -vp build
      cd       build

      ../configure --prefix=/usr                       \
            %{autotools_target}                        \
            %{autotools_host_build}                    \
            --sysconfdir=/etc                          \
            --with-sysroot=/opt/cross

    config_build-commands: |
      cd /sources/build

      make -j

    config_install-commands: |
      cd /sources/build
      mkdir -p "%{install-root}"
      make DESTDIR="%{install-root}" install



sources:
- kind: git
  url: https://github.com/seccomp/libseccomp.git
  sha: f0b04ab0b4fc0bc2cde6da1f407b4a487fe6d78f