kind: manual_second

provides: samplerate-target

depends:
- dependency: gcc-cross
  scope: Build
- dependency: make
  scope: Build
- dependency: coreutils
  scope: Build
- dependency: flex
  scope: Build
- dependency: m4
  scope: Build
- dependency: autoconf
  scope: Build
- dependency: automake
  scope: Build
- dependency: xz
  scope: Build
- dependency: m4
  scope: Build
- dependency: perl-pass3
  scope: Build
- dependency: glibc
  scope: Build
- dependency: bash
  scope: Build
- dependency: coreutils
  scope: Build
- dependency: sed
  scope: Build
- dependency: file
  scope: Build
- dependency: grep
  scope: Build
- dependency: gawk-pass1
  scope: Build
- dependency: diffutils-pass1
  scope: Build
- dependency: libtool
  scope: Build
- dependency: make
  scope: Build
- dependency: findutils-pass1
  scope: Build
- dependency: pkgconf
  scope: Build
- dependency: bison-pass3
  scope: Build
- dependency: bc
  scope: Build
- dependency: gzip-pass1
  scope: Build
- dependency: gettext
  scope: Build
- dependency: tar
  scope: Build



sources:
- kind: git
  url: https://github.com/libsndfile/libsamplerate
  sha: d8cfac91f83f15089f27ad8031452d8c45ec297d


context: build_target


plugin_variables:
  join_strategy: Join
  variables:
    config_configure-commands: |
      mkdir -p /sources/Build
      cd /sources      
      autoreconf -ivf .
      cd /sources/build

      ../configure --prefix=/usr                       \
            %{autotools_target}                        \
            %{autotools_host_build}                    \
            --disable-static --disable-docs

    config_build-commands: |
      make -j
    config_install-commands: |
      mkdir -p "%{install-root}"
      make DESTDIR="%{install-root}" install
      rm -rf %{install-root}/usr/etc
      rm -rf %{install-root}/usr/share
