kind: manual_second

provides: libunwind-target

depends:
- dependency: gcc-cross
  scope: Build
- dependency: make
  scope: Build
- dependency: coreutils
  scope: Build
- dependency: flex
  scope: Build
- dependency: m4
  scope: Build
- dependency: autoconf
  scope: Build
- dependency: automake
  scope: Build
- dependency: xz
  scope: Build
- dependency: m4
  scope: Build
- dependency: perl-pass3
  scope: Build
- dependency: glibc
  scope: Build
- dependency: bash
  scope: Build
- dependency: coreutils
  scope: Build
- dependency: sed
  scope: Build
- dependency: file
  scope: Build
- dependency: grep
  scope: Build
- dependency: gawk-pass1
  scope: Build
- dependency: diffutils-pass1
  scope: Build
- dependency: libtool
  scope: Build
- dependency: make
  scope: Build
- dependency: findutils-pass1
  scope: Build
- dependency: pkgconf
  scope: Build
- dependency: bison-pass3
  scope: Build
- dependency: bc
  scope: Build
- dependency: gzip-pass1
  scope: Build
- dependency: gmp-cross
  scope: Build
  location: /opt/cross

context: build_target

plugin_variables:
  join_strategy: Join
  variables:
    config_configure-commands: |
      mkdir -p /sources/build

      cd /sources/
      autoreconf -ivf .

      cd /sources/build
      ../configure --prefix=/usr                       \
            %{autotools_target}                        \
            %{autotools_host_build}                    \
            --enable-mini-gmp                          \
            --enable-cxx                               \
            --disable-static

    config_build-commands: |
      make -j
    config_install-commands: |
      mkdir -p "%{install-root}"
      make DESTDIR="%{install-root}" install

sources:
- kind: git
  url: https://github.com/libunwind/libunwind
  sha: b3ca1b59a795a617877c01fe5d299ab7a07ff29d

