kind: manual_second

depends:
- dependency: sdk-cross-autotools
  scope: Build
- dependency: diffutils-pass1
  scope: Build

context: build_target

provides: libxml2-target

plugin_variables:
  join_strategy: Join
  variables:
    config_configure-commands: |
      cd /sources/
      autoreconf -ivf .
      mkdir -vp build
      cd       build

      ../configure --prefix=/usr                       \
            %{autotools_target}                        \
            %{autotools_host_build}                    \
            --sysconfdir=/etc                          \
            --without-python  \
            --with-sysroot=/opt/cross

    config_build-commands: |
      cd /sources/build
      make -j

    config_install-commands: |
      cd /sources/build
      mkdir -p "%{install-root}"
      make DESTDIR="%{install-root}" install



sources:
- kind: git
  url: https://gitlab.gnome.org/GNOME/libxml2.git
  sha: f006355eda722cae204606b9f95ba51f5ce9189b