kind: manual_second

depends:
- dependency: sdk-cross-autotools
  scope: Build
- dependency: gperf
  scope: Build
- dependency: m4
  scope: Build
- dependency: python
  scope: Build
- dependency: pkgconf
  scope: Build
- dependency: diffutils-pass1
  scope: Build
- dependency: xorg-macros
  scope: Build
- dependency: xorg-macros
  scope: Build
  location: /opt/cross
- dependency: libxcb-proto
  location: /opt/cross
- dependency: libxau-target
  location: /opt/cross
- dependency: libx11-target
  location: /opt/cross

context: build_target

provides: libxext-target

environment:
  join_strategy: Join
  variables:
    PKG_CONFIG_PATH: /opt/cross/usr/lib/pkgconfig/:/opt/cross/usr/share/pkgconfig
    PKG_CONFIG_LIBDIR: /opt/cross/usr/lib/pkgconfig/:/opt/cross/usr/share/pkgconfig
    PKG_CONFIG_SYSROOT_DIR: "/opt/cross/"

plugin_variables:
  join_strategy: Join
  variables:
    config_configure-commands: |
      cd /sources/
      autoreconf -ivf .

      mkdir -vp build
      cd       build

      ../configure --prefix=/usr                       \
            %{autotools_target}                        \
            %{autotools_host_build}                    \
            --sysconfdir=/etc                          \
            --with-sysroot=/opt/cross

    config_build-commands: |
      cd /sources/build

      make -j

    config_install-commands: |
      cd /sources/build
      mkdir -p "%{install-root}"
      make DESTDIR="%{install-root}" install

sources:
- kind: git
  url: https://gitlab.freedesktop.org/xorg/lib/libxext.git
  sha: 3826a58d190c2d8093d3586cb33867668cbb4553
