kind: cmake

provides: libyuv-target

depends:
- dependency: gcc-cross
  scope: Build
- dependency: cmake
  scope: Build
- dependency: ninja
  scope: Build
- dependency: libjpeg-target
  scope: Build
  stage: None
  location: /opt/cross/

sources:
- kind: git
  url: https://chromium.googlesource.com/libyuv/libyuv.git
  fetch: stable
  sha: eb6e7bb63738e29efd82ea3cf2a115238a89fa51

environment:
  join_strategy: Join
  variables:
    JOBS: -j24

context: build_target

plugin_variables:
  join_strategy: Join
  variables:

    build-root: /sources/
    max-jobs: 8
    build-dir: /sources/

    CMAKE_C_COMPILER: "%{target-gcc-triplet}-gcc"
    CMAKE_CXX_COMPILER: "%{target-gcc-triplet}-g++"


    make: |
      cmake --build %{build-dir} -- ${JOBS}
    make-install: |
      env DESTDIR="%{install-root}" cmake --build %{build-dir} --target install

    configA_configure-commands: |
        
        cat >cross.cmake <<EOF
        # the name of the target operating system
        set(CMAKE_SYSTEM_NAME Linux)

        # which C and C++ compiler to use
        set(CMAKE_C_COMPILER "%{target-gcc-triplet}-gcc")
        set(CMAKE_CXX_COMPILER "%{target-gcc-triplet}-g++")

        EOF
        if [ "%{target-gcc-triplet}" == 'aarch64-lfs-linux-gnu' ]; then
        echo "set(CMAKE_SYSTEM_PROCESSOR aarch64)" >> cross.cmake
        else
        echo "set(CMAKE_SYSTEM_PROCESSOR x86_64)" >> cross.cmake
        fi
    
    cmake-local: |
      -DCMAKE_SKIP_RPATH:BOOL=YES \
      -DCMAKE_TOOLCHAIN_FILE=cross.cmake

    configP_install-commands: |
      rm %{install-root}/%{prefix}/share -rf


