kind: manual_second

depends:
- dependency: sdk-cross-autotools
  scope: Build


context: build_target

provides: pcre2-target

plugin_variables:
  join_strategy: Join
  variables:
    config_configure-commands: |
      cd /sources/
      mkdir -vp build
      cd       build

      ../configure --prefix=/usr                      \
            %{autotools_target}                        \
            %{autotools_host_build}

    config_build-commands: |
      cd /sources/build
      make -j

    config_install-commands: |
      cd /sources/build
      mkdir -p "%{install-root}"
      make DESTDIR="%{install-root}" install


sources:
- kind: tar
  url: https://github.com/PCRE2Project/pcre2/releases/download/pcre2-10.42/pcre2-10.42.tar.bz2
  sha: 8d36cd8cb6ea2a4c2bb358ff6411b0c788633a2a45dabbf1aeb4b701d1b5e840
  unpack: pcre2-10.42