kind: manual_second

provides: pi_userland

depends:
- dependency: sdk-cross-autotools
  scope: Build

sources:
  - kind: git_source
    url: https://github.com/raspberrypi/userland
    sha: 7d3c6b9f4c3ddeecefdeb2b882bada74a235249b


context: build_target


plugin_variables:
  join_strategy: Join
  variables:

    config_install-commands: |
      cmake . -DARM64=ON -DCMAKE_BUILD_TYPE=RELEASE -B build
      cd build
      make -j10
      make install DESTDIR="%{install-root}/usr/"
