kind: manual_second

depends:
- dependency: gcc
  scope: Build
- dependency: python
- dependency: bash
  scope: Build
- dependency: make
  scope: Build
- dependency: coreutils
  scope: Build
- dependency: sed
  scope: Build
- dependency: file
  scope: Build
- dependency: grep
  scope: Build
- dependency: gawk-pass1
  scope: Build
- dependency: findutils-pass1
  scope: Build
- dependency: diffutils-pass1
  scope: Build
- dependency: expat
  scope: Build
- dependency: pkgconf
  scope: Build
- dependency: openssl
  scope: Build
- dependency: python-wheel
  scope: Build
- dependency: python-build
  scope: Build
- dependency: python-installer
  scope: Build
- dependency: python-pyproject_hooks
  scope: Build
- dependency: python-packaging
  scope: Build
- dependency: cython
  scope: Build

context: tool_chain_pass1

provides: python-yaml

plugin_variables:
  join_strategy: Join
  variables:
    python: python -P
    build-args: "--no-isolation --wheel --outdir %{dist-dir}"
    dist-dir: "%{build-root}/dist"
    build-root: /sources/
    config_build-commands: |
      cd /sources/
      export HOME="/root/"
      export PYTHONPATH="/sources/src"
      %{python} -mbuild %{build-args} .

    config_install-commands: |
      mkdir -p %{install-root}
      %{python} -minstaller %{dist-dir}/*.whl --destdir %{install-root}

sources:
- kind: tar
  url: https://files.pythonhosted.org/packages/cd/e5/af35f7ea75cf72f2cd079c95ee16797de7cd71f29ea7c68ae5ce7be1eda0/PyYAML-6.0.1.tar.gz
  sha: bfdf460b1736c775f2ba9f6a92bca30bc2095067b8a9d77876d1fad6cc3b4a43
  unpack: PyYAML-6.0.1
