kind: manual_second

depends:
- dependency: gcc
  scope: Build
- dependency: python
- dependency: bash
  scope: Build
- dependency: make
  scope: Build
- dependency: coreutils
  scope: Build
- dependency: sed
  scope: Build
- dependency: file
  scope: Build
- dependency: grep
  scope: Build
- dependency: gawk-pass1
  scope: Build
- dependency: findutils-pass1
  scope: Build
- dependency: diffutils-pass1
  scope: Build
- dependency: expat
  scope: Build
- dependency: pkgconf
  scope: Build
- dependency: openssl
  scope: Build
- dependency: python-wheel
  scope: Build
- dependency: python-build
  scope: Build
- dependency: python-installer
  scope: Build
- dependency: python-pyproject_hooks
  scope: Build
- dependency: python-packaging
  scope: Build
- dependency: cython
  scope: Build

context: tool_chain_pass1

provides: python-markupsafe

plugin_variables:
  join_strategy: Join
  variables:
    python: python -P
    build-args: "--no-isolation --wheel --outdir %{dist-dir}"
    dist-dir: "%{build-root}/dist"
    build-root: /sources/
    config_build-commands: |
      cd /sources/
      export HOME="/root/"
      export PYTHONPATH="/sources/src"
      %{python} -mbuild %{build-args} .

    config_install-commands: |
      mkdir -p %{install-root}
      %{python} -minstaller %{dist-dir}/*.whl --destdir %{install-root}

sources:
- kind: tar
  url: https://files.pythonhosted.org/packages/6d/7c/59a3248f411813f8ccba92a55feaac4bf360d29e2ff05ee7d8e1ef2d7dbf/MarkupSafe-2.1.3.tar.gz
  sha: af598ed32d6ae86f1b747b82783958b1a4ab8f617b06fe68795c7f026abbdcad
  unpack: MarkupSafe-2.1.3
