kind: manual_second


depends:
- dependency: gcc-cross
  scope: Build
- dependency: make
  scope: Build
- dependency: gzip-pass1
  scope: Build

sources:
  - kind: git
    url: https://git.kernel.org/pub/scm/linux/kernel/git/wens/wireless-regdb.git
    sha: b66b9a188adf01b8a7654b902749ae161b5ebc60

context: build_target

provides: regulatory-db

plugin_variables:
  join_strategy: Join
  variables:

    config_install-commands: |
      make DESTDIR="%{install-root}" PREFIX=/usr/ install
      mv "%{install-root}"/lib/firmware/ "%{install-root}"/usr/lib/
      rm -rf "%{install-root}"/lib/
