kind: manual_second

depends:
- dependency: sdk-cross-autotools
  scope: Build


context: build_target

provides: strace-target

plugin_variables:
  join_strategy: Join
  variables:
    config_configure-commands: |
      cd /sources/
      mkdir -vp build
      cd       build

      ../configure --prefix=/usr                      \
            %{autotools_host_build} LDFLAGS="-static" --enable-mpers=check 

    config_build-commands: |
      cd /sources/build

      make -j

    config_install-commands: |
      cd /sources/build
      mkdir -p "%{install-root}"
      make DESTDIR="%{install-root}" install



sources:
- kind: tar
  url: https://github.com/strace/strace/releases/download/v6.6/strace-6.6.tar.xz
  sha: 421b4186c06b705163e64dc85f271ebdcf67660af8667283147d5e859fc8a96c
  unpack: strace-6.6