kind: manual_second

depends:
- dependency: bash
  scope: Build
- dependency: coreutils
  scope: Build
- dependency: gcc
  scope: Build
- dependency: gcc-cross
  scope: Build

- dependency: gcc-cross
  scope: Build
  stage: None
  location: /output_dir
- dependency: rust
  scope: Build
  location: /output_dir
- dependency: certs-import
  scope: Build
  location: /output_dir

- dependency: sdk-cross-autotools
  scope: Build
  location: /output_dir


- dependency: glibc-cross
  scope: Build
  stage: None
  location: /output_dir
- dependency: libxcrypt-cross
  scope: Build
  stage: None
  location: /output_dir/opt/cross/


- dependency: userland-target
  scope: Build
  location: /output_dir/opt/cross/


context: build_cross

provides: system-sdk

plugin_variables:
  join_strategy: Join
  variables:
    config_install-commands: |
      echo "root:x:0:0:root:/root:/bin/bash" > /output_dir/etc/passwd
      echo "root:x:0:" >/output_dir/etc/group
      ln -s x86_64-pc-linux-gnu-gcc /output_dir//usr/bin/cc
      mkdir -p /output_dir/tmp

      find /output_dir/ -name "*" -exec strip --strip-unneeded {} \;
      find /output_dir/opt/cross -name "*" -exec %{target-gcc-triplet}-strip --strip-unneeded {} \;
      


sources: []
