kind: manual_second

provides: systemd-tools

depends:
- dependency: gcc
  scope: Build
- dependency: make
  scope: Build
- dependency: coreutils
  scope: Build
- dependency: flex
  scope: Build
- dependency: m4
  scope: Build
- dependency: autoconf
  scope: Build
- dependency: automake
  scope: Build
- dependency: xz
  scope: Build
- dependency: m4
  scope: Build
- dependency: perl-pass3
  scope: Build
- dependency: glibc
  scope: Build
- dependency: bash
  scope: Build
- dependency: sed
  scope: Build
- dependency: file
  scope: Build
- dependency: grep
  scope: Build
- dependency: gawk-pass1
  scope: Build
- dependency: gettext
  scope: Build
- dependency: diffutils-pass1
  scope: Build
- dependency: libtool
  scope: Build
- dependency: make
  scope: Build
- dependency: findutils-pass1
  scope: Build
- dependency: pkgconf
  scope: Build
- dependency: bison-pass3
  scope: Build
- dependency: bc
  scope: Build
- dependency: gzip-pass1
  scope: Build
- dependency: ninja
  scope: Build
- dependency: meson
  scope: Build
- dependency: python
  scope: Build
- dependency: python-jinja2
  scope: Build
- dependency: gperf
  scope: Build
- dependency: openssl
- dependency: linux-headers-target
  scope: Build
- dependency: libcap-host
- dependency: util-linux


context: build_cross

plugin_variables:
  join_strategy: Join
  variables:
    config_configure-commands: |
      mkdir -p /sources/build
      cd /sources/

      cat >local_build.txt <<EOF

      [binaries]
      c = '%{host-gcc-triplet}-gcc'
      cpp = '%{host-gcc-triplet}-g++'
      pkgconfig = 'pkg-config'

      [target_machine]
      system = 'linux'
      cpu_family = 'x86_64'
      cpu = 'x86_64'
      endian = 'little'

      [host_machine]
      system = 'linux'
      cpu_family = 'x86_64'
      cpu = 'x86_64'
      endian = 'little'

      [paths]
      prefix = '/usr'

      EOF
      

    config_build-commands: |

      meson --buildtype=release --prefix=/usr/ build --cross-file local_build.txt


    config_install-commands: |
      mkdir -p "%{install-root}"
      DESTDIR=/%{install-root}/ ninja -C build install

sources:
  - kind: git
    url: https://github.com/systemd/systemd.git
    sha: 70bae7648f2c18010187c9cf20093155eaa26029
