kind: manual

depends:
- dependency: tarball
  scope: Build
- dependency: egui-target
  scope: Run
  when:
    windowing: wayland
- dependency: xilem-target
  scope: Run
  when:
    windowing: wayland

provides: userland-apps-target

sources: []
