kind: manual_second

provides: wayland-target

depends:
- dependency: bash
  scope: Build
- dependency: gcc-cross
  scope: Build
- dependency: make
  scope: Build
- dependency: python
  scope: Build
- dependency: meson
  scope: Build
- dependency: meson-config
  scope: Build
- dependency: ninja
  scope: Build
- dependency: pkgconf
  scope: Build
- dependency: python-yaml
  scope: Build
- dependency: python-jinja2
  scope: Build
- dependency: python-ply
  scope: Build

- dependency: wayland-tools
  scope: Build

- dependency: libffi-target
  location: /opt/cross
- dependency: libxml2-target
  location: /opt/cross/
- dependency: expat-target
  location: /opt/cross/

sources:
  - kind: git
    url: https://gitlab.freedesktop.org/wayland/wayland
    sha: a9fec8dd65977c57f4039ced34327204d9b9d779
    fetch: 1.23.1

context: build_target


plugin_variables:
  join_strategy: Join
  variables:
    prefix: /usr

    config_configure-commands: |

      cp /usr/lib/pkgconfig/wayland-scanner.pc /opt/cross/usr/lib/pkgconfig/wayland-scanner.pc
      ln -s /usr/bin/wayland-scanner /opt/cross/usr/bin/wayland-scanner

      meson setup . ./build  --buildtype=release  \
        --prefix=/usr/ -Dlibraries=true -Dscanner=false -Ddocumentation=false \
        -Dtests=false -Ddtd_validation=false -Dicon_directory=false \
        --cross-file /meson_cross_build.txt


    config_build-commands: |
      meson build --cross-file cross_build.txt --help

    config_install-commands: |
      mkdir -p "%{install-root}"
      DESTDIR=/%{install-root}/ ninja -C build install
