kind: manual_second

provides: wayland-tools

depends:
- dependency: bash
  scope: Build
- dependency: gcc-cross
  scope: Build
- dependency: make
  scope: Build
- dependency: python
  scope: Build
- dependency: meson
  scope: Build
- dependency: meson-config
  scope: Build
- dependency: ninja
  scope: Build
- dependency: pkgconf
  scope: Build
- dependency: python-yaml
  scope: Build
- dependency: python-jinja2
  scope: Build
- dependency: python-ply
  scope: Build

- dependency: libffi
- dependency: libxml2
- dependency: expat

sources:
  - kind: git
    url: https://gitlab.freedesktop.org/wayland/wayland
    sha: a9fec8dd65977c57f4039ced34327204d9b9d779
    fetch: 1.23.1

context: build_cross

plugin_variables:
  join_strategy: Join
  variables:
    config_configure-commands: |
      mkdir -p /sources/build
      cd /sources/

      meson setup . ./build  --buildtype=release  \
      --prefix=/usr/ -Dlibraries=false -Ddocumentation=false \
      -Dtests=false -Ddtd_validation=false -Dicon_directory=false \
      --native-file /meson_local_build.txt

    config_build-commands: |
      meson --buildtype=release build --cross-file cross_build.txt

    config_install-commands: |
      mkdir -p "%{install-root}"
      DESTDIR=/%{install-root}/ ninja -C build install
