kind: manual_second

depends:
- dependency: sdk-cross-autotools
  scope: Build

context: build_target

provides: xz-target

plugin_variables:
  join_strategy: Join
  variables:
    config_configure-commands: |
      cd /sources/

      mkdir -p /sources/build
      cd /sources/build

      ../configure --prefix=/usr    \
            --disable-static \
            %{autotools_target}                        \
            %{autotools_host_build}                    \
            --docdir=/usr/share/doc/xz-5.4.4

    config_build-commands: |
      make -j
    config_install-commands: |
      mkdir -p "%{install-root}"
      make DESTDIR="%{install-root}" install

sources:
- kind: tar
  url: https://tukaani.org/xz/xz-5.4.1.tar.xz
  sha: 5d9827aa1875b21c288f78864bb26d2650b436ea8d2cad364e4921eb6266a5a5
  unpack: xz-5.4.1
